1,1,Racing,60,Belgrade,3,2
2,57,Slavia,87,Gokulam,3,2
3,69,Rosario,68,Toulouse,1,3
4,77,Zurich,20,Kazan,3,2
5,21,Javor,62,Mumbai,3,0
6,74,Enppi,89,Plzen,3,1
7,91,Huracan,67,Pachuca,0,3
8,104,Puebla,16,Parme,1,3
9,9,Leipzig,45,Roma,3,2
10,118,Excelsior,93,Seville,2,3
11,53,United,106,Union,0,3
12,58,San Jose,23,Atk,2,3
13,19,Wydad,92,Cubango,2,3
14,124,Leon,101,Pohang,3,1
15,88,Chelsea,99,Ismaily,0,3
16,38,Santos,8,Petro,1,3
17,7,Ajax,127,Arsenal,3,0
18,112,Al Alhy,50,Espanyol,2,3
19,113,Shaktior,103,Besiktas,3,2
20,59,Panthere,28,Desna,2,3
21,27,Suning,76,Lokomotiv,3,1
22,121,Lille,79,Bayern,1,3
23,61,Everton,111,Botafogo,3,2
24,122,Leverkusen,12,Tigres,1,3
25,14,Atlas,40,Osasuna,3,2
26,84,Rabat,110,Lugano,1,3
27,46,Udinese,114,Fenerbahce,3,1
28,49,Sporting,29,Braga,2,3
29,25,Juve,65,Daegu,3,2
30,81,Lazio,83,Frankfurt,3,0
31,33,City,39,Aris,1,3
32,42,Seattle,3,Innsbruck,1,3
33,4,Norwich,78,Rennes,3,2
34,117,Feyenoord,55,Leicester,3,1
35,102,Shandong,64,Fluminense,0,3
36,115,Bale,22,Mazembe,3,1
37,24,Amazulu,70,Kamsar,3,1
38,75,Kashmir,120,Saoura,3,1
39,37,Bilbao,73,Gallen,3,0
40,107,Lipuli,10,Debrecen,2,3
41,13,Goa,96,Talangai,3,2
42,35,Cska,90,Fehervar,3,0
43,34,Simba,56,Psv,3,1
44,86,Sahel,26,Bétis,0,3
45,17,Galatasaray,36,Juarez,1,3
46,82,Valence,97,Barca,3,1
47,128,Vasco,66,Salzurg,2,3
48,98,St Etienne,5,Olympiacos,0,3
49,6,Honved,85,Marsille,3,1
50,44,Dortmund,95,Brugge,0,3
51,80,Sion,48,Anderlecht,2,3
52,109,Milan,30,Horoya,3,0
53,31,Nantes,123,Hyderabad,3,1
54,116,Reims,71,Vitesse,2,3
55,100,Pune,51,Eupen,3,1
56,126,Fiorentina,15,Sao Paulo,2,3
57,11,Kerala,63,Genoa,3,2
58,72,Gallen,43,Porto,1,3
59,125,Zorya,108,Cukaricki,3,2
60,119,River,18,New York,0,3
61,32,Kashima,52,Guingamp,3,1
62,94,Shanghai,47,Boavista,1,3
63,105,Jamshedpur,54,Osaka,3,2
64,41,Dallas,2,Nagoya,1,3
65,1,Racing,57,Slavia,3,0
66,68,Toulouse,77,Zurich,3,1
67,21,Javor,74,Enppi,2,3
68,67,Pachuca,16,Parme,1,3
69,9,Leipzig,93,Seville,3,1
70,106,Union,23,Atk,3,1
71,92,Cubango,124,Leon,0,3
72,99,Ismaily,8,Petro,2,3
73,7,Ajax,50,Espanyol,0,3
74,113,Shaktior,28,Desna,2,3
75,27,Suning,79,Bayern,3,2
76,61,Everton,12,Tigres,0,3
77,14,Atlas,110,Lugano,3,0
78,46,Udinese,29,Braga,3,0
79,25,Juve,81,Lazio,3,0
80,39,Aris,3,Innsbruck,2,3
81,4,Norwich,117,Feyenoord,3,0
82,64,Fluminense,115,Bale,3,0
83,24,Amazulu,75,Kashmir,3,0
84,37,Bilbao,10,Debrecen,0,3
85,13,Goa,35,Cska,3,2
86,34,Simba,26,Bétis,3,1
87,36,Juarez,82,Valence,2,3
88,66,Salzurg,5,Olympiacos,3,1
89,6,Honved,95,Brugge,3,1
90,48,Anderlecht,109,Milan,3,1
91,31,Nantes,71,Vitesse,3,1
92,100,Pune,15,Sao Paulo,2,3
93,11,Kerala,43,Porto,3,0
94,125,Zorya,18,New York,2,3
95,32,Kashima,47,Boavista,3,2
96,105,Jamshedpur,2,Nagoya,0,3
97,1,Racing,68,Toulouse,3,2
98,74,Enppi,16,Parme,1,3
99,9,Leipzig,106,Union,3,2
100,124,Leon,8,Petro,0,3
101,50,Espanyol,28,Desna,1,3
102,27,Suning,12,Tigres,1,3
103,14,Atlas,46,Udinese,3,1
104,25,Juve,3,Innsbruck,2,3
105,4,Norwich,64,Fluminense,3,1
106,24,Amazulu,10,Debrecen,2,3
107,13,Goa,34,Simba,3,1
108,82,Valence,66,Salzurg,3,0
109,6,Honved,48,Anderlecht,3,1
110,31,Nantes,15,Sao Paulo,2,3
111,11,Kerala,18,New York,3,1
112,32,Kashima,2,Nagoya,2,3
113,1,Racing,16,Parme,3,1
114,9,Leipzig,8,Petro,2,3
115,28,Desna,12,Tigres,3,1
116,14,Atlas,3,Innsbruck,2,3
117,4,Norwich,10,Debrecen,0,3
118,13,Goa,82,Valence,3,2
119,6,Honved,15,Sao Paulo,3,0
120,11,Kerala,2,Nagoya,3,1
121,1,Racing,8,Petro,1,3
122,28,Desna,3,Innsbruck,0,3
123,10,Debrecen,13,Goa,3,0
124,6,Honved,11,Kerala,3,0
125,8,Petro,3,Innsbruck,0,3
126,10,Debrecen,6,Honved,2,3
127,3,Innsbruck,6,Honved,3,0
