gameId,tournamentName,round,p1ID,p1Name,p2Id,P2Name,p1Score,p2Score
63,C3,32,17,Galatasaray,70,Kamsar,3,2
64,C3,32,105,Jamshedpur,111,Botafogo,3,2
65,C3,32,121,Lille,89,Plzen,3,1
66,C3,32,81,Lazio,46,Udinese,2,3
67,C3,32,68,Toulouse,47,Boavista,2,3
68,C3,32,57,Slavia,91,Huracan,3,0
69,C3,32,100,Pune,99,Ismaily,1,3
70,C3,32,42,Seattle,34,Simba,1,3
71,C3,32,2,Nagoya,80,Sion,3,0
72,C3,32,125,Zorya,37,Bilbao,1,3
73,C3,32,90,Fehervar,115,Bale,3,2
74,C3,32,126,Fiorentina,18,New York,0,3
75,C3,32,82,Valence,66,Salzurg,2,3
76,C3,32,128,Vasco,45,Roma,1,3
77,C3,32,31,Nantes,27,Suning,3,2
78,C3,32,60,Belgrade,11,Kerala,1,3
79,C3,16,17,Galatasaray,105,Jamshedpur,2,3
80,C3,16,121,Lille,46,Udinese,3,2
81,C3,16,47,Boavista,57,Slavia,3,2
82,C3,16,99,Ismaily,34,Simba,2,3
83,C3,16,2,Nagoya,37,Bilbao,3,1
84,C3,16,90,Fehervar,18,New York,3,0
85,C3,16,66,Salzurg,45,Roma,3,0
86,C3,16,31,Nantes,11,Kerala,0,3
87,C3,8,105,Jamshedpur,121,Lille,2,3
88,C3,8,47,Boavista,34,Simba,2,3
89,C3,8,2,Nagoya,90,Fehervar,0,3
90,C3,8,66,Salzurg,11,Kerala,3,2
91,C3,4,121,Lille,34,Simba,3,2
92,C3,4,90,Fehervar,66,Salzurg,3,1
93,C3,2,121,Lille,90,Fehervar,3,1
