id,name,country,elo,rkPts,rank,highElo,highRkPts,highRk
3,Innsbruck,Austria,876.5,3440,1,876.5,3440,1
1,Racing,Argentina,920.75,1905,2,920.75,1905,2
6,Honved,Hungary,781,1825,3,807,1825,2
8,Petro,Angola,746,1325,4,751,1325,4
17,Galatasaray,Turkey,707.5,1200,5,734.75,1200,3
10,Debrecen,Hungary,730,1150,6,730,1150,3
4,Norwich,Uk,820.25,1130,7,828.25,1130,4
13,Goa,India,720.25,925,8,720.25,925,7
11,Kerala,India,728.5,870,9,729.5,870,6
5,Olympiacos,Greece,801,855,10,803.5,855,8
14,Atlas,Mexico,721.5,810,11,721.5,810,10
121,Lille,France,590.75,810,12,590.75,810,12
28,Desna,Ukraine,654.5,695,13,656,695,9
39,Aris,Greece,649.25,685,14,649.25,685,13
12,Tigres,Mexico,709,660,15,713.75,660,11
35,Cska,Russia,613.5,590,16,617,590,13
2,Nagoya,Japan,827,590,17,874.5,590,12
34,Simba,Tanzania,651,585,18,651,585,16
30,Horoya,Guinea,642.5,525,19,642.5,525,19
24,Amazulu,South Africa,668.5,495,20,668.5,495,14
25,Juve,Italy,647,450,21,647,450,20
15,Sao Paulo,Brazil,671.25,405,22,702.5,405,10
59,Panthere,Cameroon,579.5,400,23,588.5,400,21
82,Valence,Spain,580,400,24,580,400,15
106,Union,Germany,567.5,370,25,567.5,370,25
90,Fehervar,Hungary,563,365,26,566,365,23
21,Javor,Serbia,662,340,27,667,340,16
66,Salzurg,Austria,591.5,335,28,595,335,25
16,Parme,Italy,681.75,320,29,703,320,11
19,Wydad,Maroc,659.5,310,30,664,310,30
46,Udinese,Italy,592.25,295,31,607.25,295,21
18,New York,Usa,666.5,290,32,671,290,25
78,Rennes,France,580,275,33,580,275,33
119,River,Argentina,553.25,265,34,554.25,265,26
45,Roma,Italy,600.5,265,35,600.5,265,35
67,Pachuca,Mexico,577.75,260,36,585.25,260,34
127,Arsenal,Uk,522.25,255,37,536.25,255,23
7,Ajax,Netherlands,713.5,255,38,719,255,38
9,Leipzig,Germany,682.5,250,39,704,250,14
72,Gallen,Suisse,575.25,245,40,582,245,37
74,Enppi,Egypt,560,235,41,575,235,27
52,Guingamp,France,583.25,230,42,585.5,230,38
109,Milan,Italy,540.5,225,43,551,225,25
55,Leicester,Uk,592.5,225,44,592.5,225,44
113,Shaktior,Ukraine,531,215,45,540,215,44
68,Toulouse,France,580.75,210,46,589.75,210,24
43,Porto,Portugal,606.5,210,47,609.5,210,33
32,Kashima,Japan,624,210,48,624,210,21
95,Brugge,Belgium,551.25,210,49,554.5,210,38
31,Nantes,France,615,210,50,616.5,210,27
105,Jamshedpur,India,536.5,205,51,545.5,205,45
96,Talangai,Congo,563,200,52,572,200,48
40,Osasuna,Spain,601,195,53,601,195,52
64,Fluminense,Brazil,563.5,190,54,578.5,190,28
99,Ismaily,Egypt,550,190,55,550,190,53
85,Marseille,France,556,185,56,566.5,185,30
48,Anderlecht,Belgium,586.75,185,57,594.5,185,33
53,United,Uk,585.75,185,58,585.75,185,58
124,Leon,Mexico,521.25,180,59,535,180,38
23,Atk,India,622.25,180,60,641,180,41
92,Cubango,Angola,557.75,180,61,562.5,180,39
47,Boavista,Portugal,584.75,175,62,586.5,175,56
20,Kazan,Russia,657.75,175,63,657.75,175,50
54,Osaka,Japan,573,175,64,576.5,175,64
60,Belgrade,Serbia,582,175,65,582,175,65
65,Daegu,Korea,565.5,175,66,565.5,175,66
112,Al Alhy,Egypt,527,170,67,536,170,60
98,St Etienne,France,550,165,68,553.5,165,51
77,Zurich,Suisse,561.75,165,69,561.75,165,52
37,Bilbao,Spain,603.5,165,70,603.5,165,60
41,Dallas,Usa,596,160,71,596,160,62
38,Santos,Brazil,582,160,72,605,160,51
50,Espanyol,Spain,571.5,155,73,595,155,34
57,Slavia,Czechia,580,150,74,580.5,150,45
26,Bétis,Spain,611.5,150,75,620,150,42
117,Feyenoord,Netherlands,525,145,76,533.5,145,55
81,Lazio,Italy,549,145,77,556.5,145,68
27,Suning,China,603.75,140,78,621.5,140,32
115,Bale,Suisse,527.75,140,79,536,140,49
97,Barca,Spain,546,140,80,548,140,55
125,Zorya,Ukraine,523.75,140,81,527,140,74
63,Genoa,Italy,569,140,82,569,140,80
75,Kashmir,India,539.75,135,83,559,135,46
36,Juarez,Mexico,596.75,130,84,604.25,130,43
100,Pune,India,536.25,130,85,543,130,72
128,Vasco,Brazil,509.5,130,86,520,130,86
49,Sporting,Portugal,560,125,87,581,125,80
94,Shanghai,China,537.75,120,88,543,120,73
29,Braga,Portugal,601,120,89,613.5,120,58
110,Lugano,Suisse,525.5,120,90,534,120,48
58,San Jose,Usa,551,120,91,568.5,120,91
108,Cukaricki,Serbia,523.5,115,92,527,115,92
120,Saoura,Algeria,516.5,115,93,523,115,88
56,Psv,Netherlands,571.75,115,94,572,115,94
44,Dortmund,Germany,568.5,110,95,582,110,79
76,Lokomotiv,Russia,539.5,110,96,551.5,110,81
102,Shandong,China,520.75,110,97,531,110,82
71,Vitesse,Suisse,550.25,110,98,562.5,110,65
86,Sahel,Tunisia,526,110,99,545.5,110,84
101,Pohang,Korea,518.25,110,100,531,110,100
61,Everton,Uk,562,105,101,572.5,105,63
69,Rosario,Argentina,547.5,105,102,558,105,77
84,Rabat,Maroc,540.25,105,103,546.5,105,79
79,Bayern,Germany,547.5,105,104,557,105,67
122,Leverkusen,Germany,517,105,105,529,105,90
104,Puebla,Mexico,524.5,105,106,531,105,106
33,City,Uk,574.5,100,107,600,100,93
88,Chelsea,Uk,518.75,100,108,542,100,101
116,Reims,France,500.75,100,109,523,100,107
93,Seville,Spain,532.5,95,110,546,95,69
83,Frankfurt,Germany,538.5,95,111,553,95,83
118,Excelsior,Netherlands,511.5,95,112,526,95,87
114,Fenerbahce,Turkey,519.5,95,113,523.5,95,106
103,Besiktas,Turkey,516.5,95,114,529,95,104
73,Gallen,Belgium,535.5,95,115,555,95,82
22,Mazembe,Congo,613,95,116,635,95,92
89,Plzen,Czechia,535.5,90,117,543,90,85
51,Eupen,Belgium,558,85,118,577,85,97
70,Kamsar,Guinea,539.5,85,119,559.5,85,99
111,Botafogo,Brazil,506,85,120,525,85,105
42,Seattle,Usa,563,85,121,588,85,95
87,Gokulam,India,529.5,85,122,543,85,112
123,Hyderabad,India,504.25,85,123,521.5,85,123
62,Mumbai,India,550.5,80,124,564.5,80,104
80,Sion,Suisse,540.5,80,125,550,80,110
91,Huracan,Argentina,525.5,70,126,540,70,115
107,Lipuli,Tanzania,513.75,70,127,531,70,120
126,Fiorentina,Italy,509.75,70,128,521,70,127
