id,name,country,elo,rkPts,rank,highElo,highRkPts,highRk,,,,,,,,,,
1,Racing,Argentina,940.75,3125,3,940.75,3125,2,,Racing,29.75,911,44.625,,Plus grande montée en classement,,,
2,Nagoya,Japan,887,3090,4,887,3090,4,,Nagoya,5,882,7.5,,1,Lille,111,50
3,Innsbruck,Austria,862.5,3845,1,876.5,3845,1,,Innsbruck,33.5,829,50.25,,2,Union,84,50
4,Norwich,Uk,851.75,2350,5,851.75,2350,4,,Norwich,36.75,815,55.125,,3,Arsenal,77,50
5,Olympiacos,Greece,826,1535,8,826,1535,6,,Olympiacos,16,810,24,,4,River,72,25
6,Honved,Hungary,820,3325,2,820,3325,2,,Honved,41,779,61.5,,5,Jamshedpur,65,25
7,Ajax,Netherlands,693,295,51,719,295,38,,Ajax,-34,727,0,,,,,
8,Petro,Angola,747.5,1775,6,751,1775,4,,Petro,20.5,727,30.75,,,,,
9,Leipzig,Germany,684.5,340,39,704,340,14,,Leipzig,-15.5,700,0,,,,,
10,Debrecen,Hungary,752,1690,7,752,1690,3,,Debrecen,53,699,79.5,,,,,
11,Kerala,India,731,1070,14,735,1070,6,,Kerala,37,694,55.5,,,,,
12,Tigres,Mexico,713.5,930,18,719.5,930,11,,Tigres,20.5,693,30.75,,,,,
13,Goa,India,725.25,1105,12,725.25,1105,7,,Goa,34.25,691,51.375,,,,,
14,Atlas,Mexico,731.5,1155,11,733.5,1155,9,,Atlas,42.5,689,63.75,,,,,
15,Sao Paulo,Brazil,654.75,445,28,702.5,445,10,,Sao Paulo,-33.25,688,0,,,,,
16,Parme,Italy,686.75,500,24,703,500,11,,Parme,1.75,685,2.625,,,,,
17,Galatasaray,Turkey,701.5,1310,9,734.75,1310,3,,Galatasaray,26.5,675,39.75,,,,,
18,New York,Usa,665.5,490,25,671,490,25,,New York,-2.5,668,0,,,,,
19,Wydad,Maroc,663,445,29,664,445,29,,Wydad,-2,665,0,,,,,
20,Kazan,Russia,674.75,400,33,674.75,400,33,,Kazan,12.75,662,19.125,,,,,
21,Javor,Serbia,662,450,27,670,450,16,,Javor,13,649,19.5,,,,,
22,Mazembe,Congo,627,205,86,635,205,86,,Mazembe,-18,645,0,,,,,
23,Atk,India,611.25,220,78,641,220,41,,Atk,-32.75,644,0,,,,,
24,Amazulu,South Africa,680.5,720,19,680.5,720,14,,Amazulu,49.5,631,74.25,,,,,
25,Juve,Italy,639,515,23,647,515,20,,Juve,14,625,21,,,,,
26,Bétis,Spain,589.5,190,89,620,190,42,,Bétis,-31.5,621,0,,,,,
27,Suning,China,597.75,205,84,621.5,205,32,,Suning,-18.25,616,0,,,,,
28,Desna,Ukraine,673.5,965,16,673.5,965,9,,Desna,57.5,616,86.25,,,,,
29,Braga,Portugal,587.5,185,90,613.5,185,58,,Braga,-27.5,615,0,,,,,
30,Horoya,Guinea,688.5,975,15,688.5,975,15,,Horoya,73.5,615,110.25,,,,,
31,Nantes,France,599,275,59,616.5,275,27,,Nantes,-12,611,0,,,,,
32,Kashima,Japan,626,300,49,626,300,21,,Kashima,17,609,25.5,,,,,
33,City,Uk,591.5,325,44,600,325,44,,City,-14.5,606,0,,,,,
34,Simba,Tanzania,669,930,17,669,930,15,,Simba,64,605,96,,,,,
35,Cska,Russia,604.5,655,20,617,655,13,,Cska,0.5,604,0.75,,,,,
36,Juarez,Mexico,608.75,265,65,612.75,265,43,,Juarez,6.75,602,10.125,,,,,
37,Bilbao,Spain,606,365,34,618,365,31,,Bilbao,7,599,10.5,,,,,
38,Santos,Brazil,584,270,61,605,270,51,,Santos,-15,599,0,,,,,
39,Aris,Greece,677.75,1075,13,677.75,1075,13,,Aris,81.75,596,122.625,,,,,
40,Osasuna,Spain,593,260,66,601,260,52,,Osasuna,-3,596,0,,,,,
41,Dallas,Usa,605,430,31,610,430,31,,Dallas,9,596,13.5,,,,,
42,Seattle,Usa,594,285,56,594,285,56,,Seattle,4,590,6,,,,,
43,Porto,Portugal,605,320,45,613,320,33,,Porto,16,589,24,,,,,
44,Dortmund,Germany,547.5,150,114,582,150,79,,Dortmund,-41.5,589,0,,,,,
45,Roma,Italy,598.5,330,41,600.5,330,35,,Roma,10.5,588,15.75,,,,,
46,Udinese,Italy,586.25,360,36,607.25,360,21,,Udinese,-1.75,588,0,,,,,
47,Boavista,Portugal,581.25,285,55,591.25,285,47,,Boavista,-5.75,587,0,,,,,
48,Anderlecht,Belgium,606.25,365,35,606.25,365,33,,Anderlecht,19.25,587,28.875,,,,,
49,Sporting,Portugal,546,165,105,581,165,80,,Sporting,-40,586,0,,,,,
50,Espanyol,Spain,544.5,220,79,595,220,34,,Espanyol,-41.5,586,0,,,,,
51,Eupen,Belgium,543,150,116,577,150,97,,Eupen,-41,584,0,,,,,
52,Guingamp,France,564.75,270,60,585.5,270,38,,Guingamp,-18.25,583,0,,,,,
53,United,Uk,571.25,250,69,587.25,250,58,,United,-11.75,583,0,,,,,
54,Osaka,Japan,590.5,310,46,590.5,310,46,,Osaka,8.5,582,12.75,,,,,
55,Leicester,Uk,578.5,290,53,592.5,290,44,,Leicester,1.5,577,2.25,,,,,
56,Psv,Netherlands,569.75,180,95,572,180,94,,Psv,-7.25,577,0,,,,,
57,Slavia,Czechia,581,260,67,581,260,45,,Slavia,6,575,9,,,,,
58,San Jose,Usa,534,160,109,568.5,160,91,,San Jose,-39,573,0,,,,,
59,Panthere,Cameroon,585,580,21,588.5,580,21,,Panthere,12,573,18,,,,,
60,Belgrade,Serbia,581,265,64,584,265,63,,Belgrade,9,572,13.5,,,,,
61,Everton,Uk,550,170,103,572.5,170,63,,Everton,-21,571,0,,,,,
62,Mumbai,India,514,120,127,564.5,120,104,,Mumbai,-55,569,0,,,,,
63,Genoa,Italy,543,180,93,569,180,80,,Genoa,-26,569,0,,,,,
64,Fluminense,Brazil,549,230,74,578.5,230,28,,Fluminense,-19,568,0,,,,,
65,Daegu,Korea,552.5,240,73,568.5,240,64,,Daegu,-14.5,567,0,,,,,
66,Salzurg,Austria,582.5,400,32,595,400,25,,Salzurg,15.5,567,23.25,,,,,
67,Pachuca,Mexico,571.75,325,42,585.25,325,34,,Pachuca,5.75,566,8.625,,,,,
68,Toulouse,France,591.75,345,37,592.75,345,24,,Toulouse,26.75,565,40.125,,,,,
69,Rosario,Argentina,566,305,48,566,305,48,,Rosario,2,564,3,,,,,
70,Kamsar,Guinea,524.5,125,123,559.5,125,99,,Kamsar,-39.5,564,0,,,,,
71,Vitesse,Suisse,547.75,245,72,562.5,245,65,,Vitesse,-14.25,562,0,,,,,
72,Gallen,Suisse,564.25,285,54,582,285,37,,Gallen,4.25,560,6.375,,,,,
73,Gallen,Belgium,517.5,135,119,555,135,82,,Gallen,-42.5,560,0,,,,,
74,Enppi,Egypt,545,325,43,575,325,27,,Enppi,-14,559,0,,,,,
75,Kashmir,India,532.75,200,87,559,200,46,,Kashmir,-24.25,557,0,,,,,
76,Lokomotiv,Russia,554.5,220,80,554.5,220,80,,Lokomotiv,-1.5,556,0,,,,,
77,Zurich,Suisse,540.75,230,76,561.75,230,52,,Zurich,-15.25,556,0,,,,,
78,Rennes,France,559,340,38,580,340,33,,Rennes,3,556,4.5,,,,,
79,Bayern,Germany,524.5,170,101,557,170,67,,Bayern,-31.5,556,0,,,,,
80,Sion,Suisse,522.5,120,128,550,120,110,,Sion,-32.5,555,0,,,,,
81,Lazio,Italy,546,210,83,556.5,210,68,,Lazio,-9,555,0,,,,,
82,Valence,Spain,566,440,30,580,440,15,,Valence,12,554,18,,,,,
83,Frankfurt,Germany,547.5,295,52,553,295,52,,Frankfurt,-6.5,554,0,,,,,
84,Rabat,Maroc,543.25,170,104,546.5,170,79,,Rabat,-8.75,552,0,,,,,
85,Marseille,France,543,225,77,566.5,225,30,,Marsille,-7,550,0,,,,,
86,Sahel,Tunisia,524,175,98,545.5,175,84,,Sahel,-25,549,0,,,,,
87,Gokulam,India,500,125,125,543,125,112,,Gokulam,-48,548,0,,,,,
88,Chelsea,Uk,502.75,140,117,542,140,101,,Chelsea,-45.25,548,0,,,,,
89,Plzen,Czechia,516.5,130,122,543,130,85,,Plzen,-30.5,547,0,,,,,
90,Fehervar,Hungary,559,475,26,568,475,23,,Fehervar,13,546,19.5,,,,,
91,Huracan,Argentina,515.5,135,121,540,135,115,,Huracan,-30.5,546,0,,,,,
92,Cubango,Angola,547.75,245,71,562.5,245,39,,Cubango,2.75,545,4.125,,,,,
93,Seville,Spain,528.5,160,110,546,160,69,,Seville,-15.5,544,0,,,,,
94,Shanghai,China,523.75,160,107,543,160,73,,Shanghai,-19.25,543,0,,,,,
95,Brugge,Belgium,540.75,275,58,554.5,275,38,,Brugge,-2.25,543,0,,,,,
96,Talangai,Congo,552,265,63,572,265,48,,Talangai,9,543,13.5,,,,,
97,Barca,Spain,524,180,92,548,180,55,,Barca,-18,542,0,,,,,
98,St Etienne,France,529,230,75,554,230,51,,St Etienne,-12,541,0,,,,,
99,Ismaily,Egypt,538,255,68,552,255,53,,Ismaily,-3,541,0,,,,,
100,Pune,India,521.75,170,99,543,170,72,,Pune,-18.25,540,0,,,,,
101,Pohang,Korea,500,150,115,531,150,100,500,Pohang,-37,537,0,,,,,
102,Shandong,China,510.75,175,97,531,175,82,,Shandong,-25.25,536,0,,,,,
103,Besiktas,Turkey,500.5,135,118,529,135,104,,Besiktas,-34.5,535,0,,,,,
104,Puebla,Mexico,520.5,170,102,531,170,93,,Puebla,-14.5,535,0,,,,,
105,Jamshedpur,India,539.5,340,40,547.5,340,40,,Jamshedpur,5.5,534,8.25,,,,,
106,Union,Germany,570.5,550,22,572.5,550,22,,Union,36.5,534,54.75,,,,,
107,Lipuli,Tanzania,529.75,180,96,531,180,96,,Lipuli,-4.25,534,0,,,,,
108,Cukaricki,Serbia,506.5,155,113,527,155,92,,Cukaricki,-26.5,533,0,,,,,
109,Milan,Italy,524.5,265,62,551,265,25,,Milan,-6.5,531,0,,,,,
110,Lugano,Suisse,500,160,108,534,160,48,500,Lugano,-30,530,0,,,,,
111,Botafogo,Brazil,500,125,124,525,125,105,500,Botafogo,-30,530,0,,,,,
112,Al Alhy,Egypt,502.5,210,81,536,210,60,,Al Alhy,-27.5,530,0,,,,,
113,Shaktior,Ukraine,521,280,57,540,280,44,,Shaktior,-8,529,0,,,,,
114,Fenerbahce,Turkey,509,160,111,523.5,160,101,,Fenerbahce,-19,528,0,,,,,
115,Bale,Suisse,513.25,180,91,536,180,49,,Bale,-14.75,528,0,,,,,
116,Reims,France,500,165,106,523,165,96,500,Reims,-28,528,0,,,,,
117,Feyenoord,Netherlands,517,210,82,533.5,210,55,,Feyenoord,-11,528,0,,,,,
118,Excelsior,Netherlands,515,160,112,526,160,87,,Excelsior,-13,528,0,,,,,
119,River,Argentina,536.25,305,47,554.25,305,26,,River,8.25,528,12.375,,,,,
120,Saoura,Algeria,509.5,180,94,523,180,86,,Saoura,-18.5,528,0,,,,,
121,Lille,France,624.25,1170,10,624.25,1170,10,,Lille,97.25,527,145.875,,,,,
122,Leverkusen,Germany,513,195,88,529,195,88,,Leverkusen,-14,527,0,,,,,
123,Hyderabad,India,500,125,126,521.5,125,123,500,Hyderabad,-26,526,0,,,,,
124,Leon,Mexico,507.25,245,70,535,245,38,,Leon,-18.75,526,0,,,,,
125,Zorya,Ukraine,508.75,205,85,527,205,74,,Zorya,-16.25,525,0,,,,,
126,Fiorentina,Italy,500,135,120,521,135,117,500,Fiorentina,-24,524,0,,,,,
127,Arsenal,Uk,500,295,50,536.25,295,23,500,Arsenal,-23,523,0,,,,,
128,Vasco,Brazil,500,170,100,520,170,86,500,Vasco,-23,523,0,,,,,
